222.818	2.8135e-05	134.066	0.000210486	1.09275	7.64e-07	87.6579	
116.664	0.000113119	69.6723	0.0147165	1.14426	0.000218366	45.8317	
77.5357	9.1906e-05	46.1197	0.00103804	1.12371	0.000431308	30.29	
58.4731	9.4881e-05	34.6207	0.014611	1.12237	0.000459786	22.7141	
48.3392	9.7831e-05	28.5009	0.000791237	1.15366	0.000383389	18.6827	
40.5808	9.7299e-05	23.7727	0.0151404	1.1628	0.000684571	15.6286	
36.0256	9.892e-05	21.0219	0.000881132	1.19124	0.00037549	13.8102	
31.7106	9.462e-05	18.3832	0.00103126	1.19849	0.000745298	12.1263	
29.2379	9.8666e-05	16.8633	0.000991322	1.22869	0.000396817	11.1436	
26.4094	0.000102816	15.1656	0.00117614	1.23593	0.000908847	10.0049	
24.8924	0.000102892	14.2399	0.00119464	1.27305	0.000410741	9.3767	
22.9367	0.000104422	13.0664	0.00123838	1.26419	0.000831851	8.60309	
21.3038	0.00010313	12.0719	0.00130586	1.26866	0.000388872	7.96058	
19.871	0.000106082	11.193	0.00135634	1.26936	0.000444313	7.40597	
18.6406	0.000108071	10.4593	0.00135194	1.27009	0.000426924	6.90819	
17.5735	0.000108377	9.82399	0.00151937	1.26557	0.000416163	6.48095	
16.6148	0.000122794	9.24302	0.00154613	1.26036	0.000430361	6.10817	
15.77	0.000128824	8.72508	0.00152702	1.26981	0.000427985	5.77192	
15.0275	0.000127737	8.27471	0.00167409	1.27039	0.000493757	5.47883	
14.3626	0.000130227	7.86473	0.00182002	1.27324	0.00042517	5.22096	
